oldestPeople
…
oldestPeople

The oldest members of congress are

data(congress)
congress %>%arrange(desc(age))

## # A tibble: 18,635 x 7
##     year party firstname lastname     age incumbent chamber
##    <dbl> <chr> <chr>     <chr>      <dbl> <lgl>     <chr>  
##  1  2001 R     J.        Thurmond    98.1 TRUE      senate 
##  2  1999 R     J.        Thurmond    96.1 TRUE      senate 
##  3  2009 D     Robert    Byrd        95.1 TRUE      senate 
##  4  1997 R     J.        Thurmond    94.1 TRUE      senate 
##  5  2013 D     Frank     Lautenberg  93   TRUE      senate 
##  6  1995 R     J.        Thurmond    92.1 TRUE      senate 
##  7  1959 D     Theodore  Green       91.3 TRUE      senate 
##  8  2011 D     Daniel    Inouye      90.3 TRUE      senate 
##  9  1993 R     J.        Thurmond    90.1 TRUE      senate 
## 10  2013 R     Ralph     Hall        89.7 TRUE      house  
## #  with 18,625 more rows
…
